[
  {
    "Name": "Ion Marian",
    "Nota": 3,
    "Country": 6,
    "Address": "Ap #897-1459 Quam Avenue",
    "Married": false
  },
  {
    "Name": "Connor Johnston",
    "Age": 73,
    "Country": 7,
    "Address": "Ap #370-4647 Dis Av.",
    "Married": false
  }
]